  
{
  "AWSTemplateFormatVersion": "2010-09-09",
  "Description": "Creates an EC2 instance",
  "Resources": {
    "MyEC2Instance": {
      "Type": "AWS::EC2::Instance",
      "Properties": {
        "ImageId": "ami-0747e613a2a1ff483",
        "InstanceType": "t2.micro",
        "KeyName": "cloud",
        "Tags": [
          {
            "Key": "Name",
            "Value": "mygitlabinstance"
          }
        ]
      }
    }
  },
  "Outputs": {
    "InstanceId": {
      "Value": { "Ref": "MyEC2Instance" }
    }
  }
}

